[gd_resource type="DynamicFont" load_steps=2 format=2]

[sub_resource type="DynamicFontData" id=1]
font_path = "res://Fonts/Rounds Black.otf"

[resource]
size = 60
outline_color = Color( 0, 0, 0, 1 )
font_data = SubResource( 1 )

